0 cesta1.jpg
0 cesta2.jpg
1 cesta3.jpg
1 cesta4.jpg
1 cesta5.jpg
1 cesta6.jpg
0 cesta7.jpg
1 cesta8.jpg
0 cesta9.jpg
1 cesta10.jpg
1 cesta11.jpg
0 cesta12.jpg
0 cesta13.jpg
1 cesta14.jpg
1 cesta15.jpg
1 cesta16.jpg
1 cesta17.jpg
1 cesta18.jpg
1 cesta19.jpg
1 cesta20.jpg
1 cesta21.jpg
1 cesta22.jpg
1 cesta23.jpg
0 cesta24.jpg
0 cesta25.jpg
1 cesta26.jpg
1 cesta27.jpg
1 cesta28.jpg
0 cesta29.jpg
1 cesta30.jpg
0 cesta31.jpg
1 cesta32.jpg
1 cesta33.jpg
1 cesta34.jpg
0 cesta35.jpg
1 cesta36.jpg
1 cesta37.jpg
0 cesta38.jpg
0 cesta39.jpg
0 cesta40.jpg
0 cesta42.jpg
0 cesta42.jpg
0 cesta43.jpg
0 cesta44.jpg
0 cesta45.jpg
0 cesta46.jpg
0 cesta47.jpg
1 cesta48.jpg
0 cesta49.jpg
0 cesta50.jpg
0 cesta51.jpg
1 cesta52.jpg
0 cesta53.jpg
0 cesta54.jpg
0 cesta55.jpg
0 cesta56.jpg
0 cesta57.jpg
0 cesta58.jpg
1 cesta59.jpg
0 cesta60.jpg
0 cesta61.jpg
